…
cms_patient_experience |>
  pivot_wider(
    id_cols = starts_with("org"),
    names_from = measure_cd,
    values_from = prf_rate
 )
#> # A tibble: 95 × 8
#>    org_pac_id org_nm    CAHPS_GRP_1 CAHPS_GRP_2 CAHPS_GRP_3 CAHPS_GRP_5
#>    <chr>      <chr>           <dbl>       <dbl>       <dbl>       <dbl>
#>  1 0446157747 USC CARE…          63          87          86          57
#>  2 0446162697 ASSOCIAT…          59          85          83          63
#>  3 0547164295 BEAVER M…          49          NA          75          44
#>  4 0749333730 CAPE PHY…          67          84          85          65
#>  5 0840104360 ALLIANCE…          66          87          87          64
#>  6 0840109864 REX HOSP…          73          87          84          67
#>  7 0840513552 SCL HEAL…          58          83          76          58
#>  8 0941545784 GRITMAN …          46          86          81          54
#>  9 1052612785 COMMUNIT…          65          84          80          58
#> 10 1254237779 OUR LADY…          61          NA          NA          65
#> # ℹ 85 more rows
#> # ℹ 2 more variables: CAHPS_GRP_8 <dbl>, CAHPS_GRP_12 <dbl>

cms_patient_care |>
  pivot_wider(
    names_from = type,
    values_from = score
  )
#> # A tibble: 126 × 5
#>    ccn    facility_name               measure_abbr denominator observed
#>    <chr>  <chr>                       <chr>              <dbl>    <dbl>
#>  1 011500 BAPTIST HOSPICE             beliefs_add…         202    100  
#>  2 011500 BAPTIST HOSPICE             composite_p…         202     88.1
#>  3 011500 BAPTIST HOSPICE             dyspena_tre…         110     99.1
#>  4 011500 BAPTIST HOSPICE             dyspnea_scr…         202    100  
#>  5 011500 BAPTIST HOSPICE             opioid_bowel          61    100  
#>  6 011500 BAPTIST HOSPICE             pain_assess…         107    100  
#>  7 011500 BAPTIST HOSPICE             pain_screen…         202     88.6
#>  8 011500 BAPTIST HOSPICE             treat_pref           202    100  
#>  9 011500 BAPTIST HOSPICE             visits_immi…         232     96.1
#> 10 011501 SOUTHERNCARE NEW BEACON N.… beliefs_add…         525    100  
#> # ℹ 116 more rows

cms_patient_care |>
  pivot_wider(
    names_from = measure_abbr,
    values_from = score
  )
#> # A tibble: 28 × 12
#>    ccn    facility_name       type  beliefs_addressed composite_process
#>    <chr>  <chr>               <chr>             <dbl>             <dbl>
#>  1 011500 BAPTIST HOSPICE     deno…             202               202  
#>  2 011500 BAPTIST HOSPICE     obse…             100                88.1
#>  3 011501 SOUTHERNCARE NEW B… deno…             525               525  
#>  4 011501 SOUTHERNCARE NEW B… obse…             100               100  
#>  5 011502 COMFORT CARE COAST… deno…             295               295  
#>  6 011502 COMFORT CARE COAST… obse…             100                99.3
#>  7 011503 SAAD HOSPICE SERVI… deno…             694               694  
#>  8 011503 SAAD HOSPICE SERVI… obse…              99.9              96  
#>  9 011505 HOSPICE FAMILY CARE deno…             600               600  
#> 10 011505 HOSPICE FAMILY CARE obse…              97.8              92  
#> # ℹ 18 more rows
#> # ℹ 7 more variables: dyspena_treatment <dbl>,
#> #   dyspnea_screening <dbl>, opioid_bowel <dbl>,
#> #   pain_assessment <dbl>, pain_screening <dbl>, treat_pref <dbl>,
#> #   visits_imminent <dbl>
…
