…
#> 4 L    
fruits |> expand(type, size)
#> # A tibble: 8 × 2
#>   type   size 
#>   <chr>  <fct>
#> 1 apple  XS   
#> 2 apple  S    
#> 3 apple  M    
#> 4 apple  L    
#> 5 orange XS   
#> 6 orange S    
#> 7 orange M    
#> 8 orange L    
fruits |> expand(type, size, year)
#> # A tibble: 24 × 3
#>    type  size   year
#>    <chr> <fct> <dbl>
#>  1 apple XS     2010
#>  2 apple XS     2011
#>  3 apple XS     2012
#>  4 apple S      2010
#>  5 apple S      2011
#>  6 apple S      2012
#>  7 apple M      2010
#>  8 apple M      2011
#>  9 apple M      2012
#> 10 apple L      2010
#> # ℹ 14 more rows
…
# Other uses ----------------------------------------------------------------
# Use with `full_seq()` to fill in values of continuous variables
fruits |> expand(type, size, full_seq(year, 1))
#> # A tibble: 24 × 3
#>    type  size  `full_seq(year, 1)`
#>    <chr> <fct>               <dbl>
#>  1 apple XS                   2010
#>  2 apple XS                   2011
#>  3 apple XS                   2012
#>  4 apple S                    2010
#>  5 apple S                    2011
#>  6 apple S                    2012
#>  7 apple M                    2010
#>  8 apple M                    2011
#>  9 apple M                    2012
#> 10 apple L                    2010
#> # ℹ 14 more rows
fruits |> expand(type, size, 2010:2013)
#> # A tibble: 32 × 3
#>    type  size  `2010:2013`
#>    <chr> <fct>       <int>
#>  1 apple XS           2010
#>  2 apple XS           2011
#>  3 apple XS           2012
#>  4 apple XS           2013
#>  5 apple S            2010
#>  6 apple S            2011
#>  7 apple S            2012
#>  8 apple S            2013
#>  9 apple M            2010
#> 10 apple M            2011
#> # ℹ 22 more rows

# Use `anti_join()` to determine which observations are missing
all <- fruits |> expand(type, size, year)
all
#> # A tibble: 24 × 3
#>    type  size   year
#>    <chr> <fct> <dbl>
#>  1 apple XS     2010
#>  2 apple XS     2011
#>  3 apple XS     2012
#>  4 apple S      2010
#>  5 apple S      2011
#>  6 apple S      2012
#>  7 apple M      2010
#>  8 apple M      2011
#>  9 apple M      2012
#> 10 apple L      2010
#> # ℹ 14 more rows
…
# Use with `right_join()` to fill in missing rows (like `complete()`)
fruits |> dplyr::right_join(all)
#> Joining with `by = join_by(type, year, size)`
#> # A tibble: 25 × 4
#>    type    year size  weights
#>    <chr>  <dbl> <fct>   <dbl>
#>  1 apple   2010 XS       1.18
#>  2 orange  2010 S        3.75
#>  3 apple   2012 M        4.76
#>  4 orange  2010 S        3.72
#>  5 orange  2011 S        3.45
#>  6 orange  2012 M        5.63
#>  7 apple   2011 XS      NA   
#>  8 apple   2012 XS      NA   
#>  9 apple   2010 S       NA   
#> 10 apple   2011 S       NA   
#> # ℹ 15 more rows
…
