…
# .names_sep allows you to strip off common prefixes; this
# acts as a natural inverse to name_sep in unpack()
iris |>
  as_tibble() |>
  pack(
    Sepal = starts_with("Sepal"),
    Petal = starts_with("Petal"),
    .names_sep = "."
  )
#> # A tibble: 150 × 3
#>    Species Sepal$Length $Width Petal$Length $Width
#>    <fct>          <dbl>  <dbl>        <dbl>  <dbl>
#>  1 setosa           5.1    3.5          1.4    0.2
#>  2 setosa           4.9    3            1.4    0.2
#>  3 setosa           4.7    3.2          1.3    0.2
#>  4 setosa           4.6    3.1          1.5    0.2
#>  5 setosa           5      3.6          1.4    0.2
#>  6 setosa           5.4    3.9          1.7    0.4
#>  7 setosa           4.6    3.4          1.4    0.3
#>  8 setosa           5      3.4          1.5    0.2
#>  9 setosa           4.4    2.9          1.4    0.2
#> 10 setosa           4.9    3.1          1.5    0.1
#> # ℹ 140 more rows
…
