…
## See also

[`pivot_wider_spec()`](https://tidyr.tidyverse.org/dev/reference/pivot_wider_spec.md)
to pivot "by hand" with a data frame that defines a pivoting
specification.

## Examples

``` r
# See vignette("pivot") for examples and explanation

fish_encounters
#> # A tibble: 114 × 3
#>    fish  station  seen
#>    <fct> <fct>   <int>
#>  1 4842  Release     1
#>  2 4842  I80_1       1
#>  3 4842  Lisbon      1
#>  4 4842  Rstr        1
#>  5 4842  Base_TD     1
#>  6 4842  BCE         1
#>  7 4842  BCW         1
#>  8 4842  BCE2        1
#>  9 4842  BCW2        1
#> 10 4842  MAE         1
#> # ℹ 104 more rows
…
# Generate column names from multiple variables
us_rent_income
#> # A tibble: 104 × 5
#>    GEOID NAME       variable estimate   moe
#>    <chr> <chr>      <chr>       <dbl> <dbl>
#>  1 01    Alabama    income      24476   136
#>  2 01    Alabama    rent          747     3
#>  3 02    Alaska     income      32940   508
#>  4 02    Alaska     rent         1200    13
#>  5 04    Arizona    income      27517   148
#>  6 04    Arizona    rent          972     4
#>  7 05    Arkansas   income      23789   165
#>  8 05    Arkansas   rent          709     5
#>  9 06    California income      29454   109
#> 10 06    California rent         1358     3
#> # ℹ 94 more rows
us_rent_income |>
  pivot_wider(
    names_from = variable,
    values_from = c(estimate, moe)
  )
#> # A tibble: 52 × 6
#>    GEOID NAME         estimate_income estimate_rent moe_income moe_rent
#>    <chr> <chr>                  <dbl>         <dbl>      <dbl>    <dbl>
#>  1 01    Alabama                24476           747        136        3
#>  2 02    Alaska                 32940          1200        508       13
#>  3 04    Arizona                27517           972        148        4
#>  4 05    Arkansas               23789           709        165        5
#>  5 06    California             29454          1358        109        3
#>  6 08    Colorado               32401          1125        109        5
#>  7 09    Connecticut            35326          1123        195        5
#>  8 10    Delaware               31560          1076        247       10
#>  9 11    District of…           43198          1424        681       17
#> 10 12    Florida                25952          1077         70        3
#> # ℹ 42 more rows

# You can control whether `names_from` values vary fastest or slowest
# relative to the `values_from` column names using `names_vary`.
us_rent_income |>
  pivot_wider(
    names_from = variable,
    values_from = c(estimate, moe),
    names_vary = "slowest"
  )
#> # A tibble: 52 × 6
#>    GEOID NAME         estimate_income moe_income estimate_rent moe_rent
#>    <chr> <chr>                  <dbl>      <dbl>         <dbl>    <dbl>
#>  1 01    Alabama                24476        136           747        3
#>  2 02    Alaska                 32940        508          1200       13
#>  3 04    Arizona                27517        148           972        4
#>  4 05    Arkansas               23789        165           709        5
#>  5 06    California             29454        109          1358        3
#>  6 08    Colorado               32401        109          1125        5
#>  7 09    Connecticut            35326        195          1123        5
#>  8 10    Delaware               31560        247          1076       10
#>  9 11    District of…           43198        681          1424       17
#> 10 12    Florida                25952         70          1077        3
#> # ℹ 42 more rows

# When there are multiple `names_from` or `values_from`, you can use
# use `names_sep` or `names_glue` to control the output variable names
us_rent_income |>
  pivot_wider(
    names_from = variable,
    names_sep = ".",
    values_from = c(estimate, moe)
  )
#> # A tibble: 52 × 6
#>    GEOID NAME         estimate.income estimate.rent moe.income moe.rent
#>    <chr> <chr>                  <dbl>         <dbl>      <dbl>    <dbl>
#>  1 01    Alabama                24476           747        136        3
#>  2 02    Alaska                 32940          1200        508       13
#>  3 04    Arizona                27517           972        148        4
#>  4 05    Arkansas               23789           709        165        5
#>  5 06    California             29454          1358        109        3
#>  6 08    Colorado               32401          1125        109        5
#>  7 09    Connecticut            35326          1123        195        5
#>  8 10    Delaware               31560          1076        247       10
#>  9 11    District of…           43198          1424        681       17
#> 10 12    Florida                25952          1077         70        3
#> # ℹ 42 more rows
us_rent_income |>
  pivot_wider(
    names_from = variable,
    names_glue = "{variable}_{.value}",
    values_from = c(estimate, moe)
  )
#> # A tibble: 52 × 6
#>    GEOID NAME         income_estimate rent_estimate income_moe rent_moe
#>    <chr> <chr>                  <dbl>         <dbl>      <dbl>    <dbl>
#>  1 01    Alabama                24476           747        136        3
#>  2 02    Alaska                 32940          1200        508       13
#>  3 04    Arizona                27517           972        148        4
#>  4 05    Arkansas               23789           709        165        5
#>  5 06    California             29454          1358        109        3
#>  6 08    Colorado               32401          1125        109        5
#>  7 09    Connecticut            35326          1123        195        5
#>  8 10    Delaware               31560          1076        247       10
#>  9 11    District of…           43198          1424        681       17
#> 10 12    Florida                25952          1077         70        3
#> # ℹ 42 more rows

# Can perform aggregation with `values_fn`
warpbreaks <- as_tibble(warpbreaks[c("wool", "tension", "breaks")])
warpbreaks
#> # A tibble: 54 × 3
#>    wool  tension breaks
#>    <fct> <fct>    <dbl>
#>  1 A     L           26
#>  2 A     L           30
#>  3 A     L           54
#>  4 A     L           25
#>  5 A     L           70
#>  6 A     L           52
#>  7 A     L           51
#>  8 A     L           26
#>  9 A     L           67
#> 10 A     M           18
#> # ℹ 44 more rows
…
