…
  Should the values in the `names_from` columns be expanded by
  [`expand()`](https://tidyr.tidyverse.org/dev/reference/expand.md)
  before pivoting? This results in more columns, the output will contain
  column names corresponding to a complete expansion of all possible
  values in `names_from`. Implicit factor levels that aren't represented
  in the data will become explicit. Additionally, the column names will
  be sorted, identical to what `names_sort` would produce.

## Examples

``` r
# See vignette("pivot") for examples and explanation

us_rent_income
#> # A tibble: 104 × 5
#>    GEOID NAME       variable estimate   moe
#>    <chr> <chr>      <chr>       <dbl> <dbl>
#>  1 01    Alabama    income      24476   136
#>  2 01    Alabama    rent          747     3
#>  3 02    Alaska     income      32940   508
#>  4 02    Alaska     rent         1200    13
#>  5 04    Arizona    income      27517   148
#>  6 04    Arizona    rent          972     4
#>  7 05    Arkansas   income      23789   165
#>  8 05    Arkansas   rent          709     5
#>  9 06    California income      29454   109
#> 10 06    California rent         1358     3
#> # ℹ 94 more rows
spec1 <- us_rent_income |>
  build_wider_spec(names_from = variable, values_from = c(estimate, moe))
spec1
#> # A tibble: 4 × 3
#>   .name           .value   variable
#>   <chr>           <chr>    <chr>   
#> 1 estimate_income estimate income  
#> 2 estimate_rent   estimate rent    
#> 3 moe_income      moe      income  
#> 4 moe_rent        moe      rent    

us_rent_income |>
  pivot_wider_spec(spec1)
#> # A tibble: 52 × 6
#>    GEOID NAME         estimate_income estimate_rent moe_income moe_rent
#>    <chr> <chr>                  <dbl>         <dbl>      <dbl>    <dbl>
#>  1 01    Alabama                24476           747        136        3
#>  2 02    Alaska                 32940          1200        508       13
#>  3 04    Arizona                27517           972        148        4
#>  4 05    Arkansas               23789           709        165        5
#>  5 06    California             29454          1358        109        3
#>  6 08    Colorado               32401          1125        109        5
#>  7 09    Connecticut            35326          1123        195        5
#>  8 10    Delaware               31560          1076        247       10
#>  9 11    District of…           43198          1424        681       17
#> 10 12    Florida                25952          1077         70        3
#> # ℹ 42 more rows

# Is equivalent to
us_rent_income |>
  pivot_wider(names_from = variable, values_from = c(estimate, moe))
#> # A tibble: 52 × 6
#>    GEOID NAME         estimate_income estimate_rent moe_income moe_rent
#>    <chr> <chr>                  <dbl>         <dbl>      <dbl>    <dbl>
#>  1 01    Alabama                24476           747        136        3
#>  2 02    Alaska                 32940          1200        508       13
#>  3 04    Arizona                27517           972        148        4
#>  4 05    Arkansas               23789           709        165        5
#>  5 06    California             29454          1358        109        3
#>  6 08    Colorado               32401          1125        109        5
#>  7 09    Connecticut            35326          1123        195        5
#>  8 10    Delaware               31560          1076        247       10
#>  9 11    District of…           43198          1424        681       17
#> 10 12    Florida                25952          1077         70        3
#> # ℹ 42 more rows

# `pivot_wider_spec()` provides more control over column names and output format
# instead of creating columns with estimate_ and moe_ prefixes,
# keep original variable name for estimates and attach _moe as suffix
spec2 <- tibble(
  .name = c("income", "rent", "income_moe", "rent_moe"),
  .value = c("estimate", "estimate", "moe", "moe"),
  variable = c("income", "rent", "income", "rent")
)

us_rent_income |>
  pivot_wider_spec(spec2)
#> # A tibble: 52 × 6
#>    GEOID NAME                 income  rent income_moe rent_moe
#>    <chr> <chr>                 <dbl> <dbl>      <dbl>    <dbl>
#>  1 01    Alabama               24476   747        136        3
#>  2 02    Alaska                32940  1200        508       13
#>  3 04    Arizona               27517   972        148        4
#>  4 05    Arkansas              23789   709        165        5
#>  5 06    California            29454  1358        109        3
#>  6 08    Colorado              32401  1125        109        5
#>  7 09    Connecticut           35326  1123        195        5
#>  8 10    Delaware              31560  1076        247       10
#>  9 11    District of Columbia  43198  1424        681       17
#> 10 12    Florida               25952  1077         70        3
#> # ℹ 42 more rows
```
