…
#>  9 Jehovah's…      20        27        24        24        21        30
#> 10 Jewish          19        19        25        25        30        95
#> 11 Mainline …     289       495       619       655       651      1107
#> 12 Mormon          29        40        48        51        56       112
#> 13 Muslim           6         7         9        10         9        23
#> 14 Orthodox        13        17        23        32        32        47
#> 15 Other Chr…       9         7        11        13        13        14
#> 16 Other Fai…      20        33        40        46        49        63
#> 17 Other Wor…       5         2         3         4         2         7
#> 18 Unaffilia…     217       299       374       365       341       528
#> # ℹ 4 more variables: `$75-100k` <dbl>, `$100-150k` <dbl>,
#> #   `>150k` <dbl>, `Don't know/refused` <dbl>
relig_income |>
  pivot_longer(!religion, names_to = "income", values_to = "count")
#> # A tibble: 180 × 3
#>    religion income             count
#>    <chr>    <chr>              <dbl>
#>  1 Agnostic <$10k                 27
#>  2 Agnostic $10-20k               34
#>  3 Agnostic $20-30k               60
#>  4 Agnostic $30-40k               81
#>  5 Agnostic $40-50k               76
#>  6 Agnostic $50-75k              137
#>  7 Agnostic $75-100k             122
#>  8 Agnostic $100-150k            109
#>  9 Agnostic >150k                 84
#> 10 Agnostic Don't know/refused    96
#> # ℹ 170 more rows

# Slightly more complex case where columns have common prefix,
# and missing missings are structural so should be dropped.
billboard
#> # A tibble: 317 × 79
#>    artist  track date.entered   wk1   wk2   wk3   wk4   wk5   wk6   wk7
#>    <chr>   <chr> <date>       <dbl> <dbl> <dbl> <dbl> <dbl> <dbl> <dbl>
#>  1 2 Pac   Baby… 2000-02-26      87    82    72    77    87    94    99
#>  2 2Ge+her The … 2000-09-02      91    87    92    NA    NA    NA    NA
#>  3 3 Door… Kryp… 2000-04-08      81    70    68    67    66    57    54
#>  4 3 Door… Loser 2000-10-21      76    76    72    69    67    65    55
#>  5 504 Bo… Wobb… 2000-04-15      57    34    25    17    17    31    36
#>  6 98^0    Give… 2000-08-19      51    39    34    26    26    19     2
#>  7 A*Teens Danc… 2000-07-08      97    97    96    95   100    NA    NA
#>  8 Aaliyah I Do… 2000-01-29      84    62    51    41    38    35    35
#>  9 Aaliyah Try … 2000-03-18      59    53    38    28    21    18    16
#> 10 Adams,… Open… 2000-08-26      76    76    74    69    68    67    61
#> # ℹ 307 more rows
#> # ℹ 69 more variables: wk8 <dbl>, wk9 <dbl>, wk10 <dbl>, wk11 <dbl>,
#> #   wk12 <dbl>, wk13 <dbl>, wk14 <dbl>, wk15 <dbl>, wk16 <dbl>,
#> #   wk17 <dbl>, wk18 <dbl>, wk19 <dbl>, wk20 <dbl>, wk21 <dbl>,
#> #   wk22 <dbl>, wk23 <dbl>, wk24 <dbl>, wk25 <dbl>, wk26 <dbl>,
#> #   wk27 <dbl>, wk28 <dbl>, wk29 <dbl>, wk30 <dbl>, wk31 <dbl>,
#> #   wk32 <dbl>, wk33 <dbl>, wk34 <dbl>, wk35 <dbl>, wk36 <dbl>, …
billboard |>
  pivot_longer(
    cols = starts_with("wk"),
    names_to = "week",
    names_prefix = "wk",
    values_to = "rank",
    values_drop_na = TRUE
  )
#> # A tibble: 5,307 × 5
#>    artist  track                   date.entered week   rank
#>    <chr>   <chr>                   <date>       <chr> <dbl>
#>  1 2 Pac   Baby Don't Cry (Keep... 2000-02-26   1        87
#>  2 2 Pac   Baby Don't Cry (Keep... 2000-02-26   2        82
#>  3 2 Pac   Baby Don't Cry (Keep... 2000-02-26   3        72
#>  4 2 Pac   Baby Don't Cry (Keep... 2000-02-26   4        77
#>  5 2 Pac   Baby Don't Cry (Keep... 2000-02-26   5        87
#>  6 2 Pac   Baby Don't Cry (Keep... 2000-02-26   6        94
#>  7 2 Pac   Baby Don't Cry (Keep... 2000-02-26   7        99
#>  8 2Ge+her The Hardest Part Of ... 2000-09-02   1        91
#>  9 2Ge+her The Hardest Part Of ... 2000-09-02   2        87
#> 10 2Ge+her The Hardest Part Of ... 2000-09-02   3        92
#> # ℹ 5,297 more rows

# Multiple variables stored in column names
who |> pivot_longer(
  cols = new_sp_m014:newrel_f65,
  names_to = c("diagnosis", "gender", "age"),
  names_pattern = "new_?(.*)_(.)(.*)",
  values_to = "count"
)
#> # A tibble: 405,440 × 8
#>    country     iso2  iso3   year diagnosis gender age   count
#>    <chr>       <chr> <chr> <dbl> <chr>     <chr>  <chr> <dbl>
#>  1 Afghanistan AF    AFG    1980 sp        m      014      NA
#>  2 Afghanistan AF    AFG    1980 sp        m      1524     NA
#>  3 Afghanistan AF    AFG    1980 sp        m      2534     NA
#>  4 Afghanistan AF    AFG    1980 sp        m      3544     NA
#>  5 Afghanistan AF    AFG    1980 sp        m      4554     NA
#>  6 Afghanistan AF    AFG    1980 sp        m      5564     NA
#>  7 Afghanistan AF    AFG    1980 sp        m      65       NA
#>  8 Afghanistan AF    AFG    1980 sp        f      014      NA
#>  9 Afghanistan AF    AFG    1980 sp        f      1524     NA
#> 10 Afghanistan AF    AFG    1980 sp        f      2534     NA
#> # ℹ 405,430 more rows
…
#> 5  11 11 11  8  8.33 9.26  7.81  8.47
#> 6  14 14 14  8  9.96 8.10  8.84  7.04
#> 7   6  6  6  8  7.24 6.13  6.08  5.25
#> 8   4  4  4 19  4.26 3.10  5.39 12.50
#> 9  12 12 12  8 10.84 9.13  8.15  5.56
#> 10  7  7  7  8  4.82 7.26  6.42  7.91
#> 11  5  5  5  8  5.68 4.74  5.73  6.89
anscombe |>
  pivot_longer(
    everything(),
    cols_vary = "slowest",
    names_to = c(".value", "set"),
    names_pattern = "(.)(.)"
  )
#> # A tibble: 44 × 3
#>    set       x     y
#>    <chr> <dbl> <dbl>
#>  1 1        10  8.04
#>  2 1         8  6.95
#>  3 1        13  7.58
#>  4 1         9  8.81
#>  5 1        11  8.33
#>  6 1        14  9.96
#>  7 1         6  7.24
#>  8 1         4  4.26
#>  9 1        12 10.8 
#> 10 1         7  4.82
#> # ℹ 34 more rows
```
